// Jest Snapshot v1, https://goo.gl/fbAQLP

exports[`AntCard Component should render screen correct 1`] = `
<RCTScrollView
  ListEmptyComponent={[Function]}
  data={
    [
      {
        "color": "BLACK",
        "length": 12,
        "name": "Marie Ant oinette",
        "weight": 2,
      },
      {
        "color": "RED",
        "length": 11,
        "name": "Flamin Pincers",
        "weight": 2,
      },
      {
        "color": "BLACK",
        "length": 20,
        "name": "Big Susan",
        "weight": 5,
      },
      {
        "color": "SILVER",
        "length": 5,
        "name": "The Unbeareable Lightness of Being",
        "weight": 1,
      },
      {
        "color": "RED",
        "length": 17,
        "name": "The Duke",
        "weight": 3,
      },
    ]
  }
  getItem={[Function]}
  getItemCount={[Function]}
  horizontal={true}
  keyExtractor={[Function]}
  onContentSizeChange={[Function]}
  onLayout={[Function]}
  onMomentumScrollBegin={[Function]}
  onMomentumScrollEnd={[Function]}
  onScroll={[Function]}
  onScrollBeginDrag={[Function]}
  onScrollEndDrag={[Function]}
  removeClippedSubviews={false}
  renderItem={[Function]}
  scrollEventThrottle={50}
  stickyHeaderIndices={[]}
  style={
    [
      {
        "height": 300,
        "maxHeight": 300,
        "width": "100%",
      },
    ]
  }
  testID="list-ant"
  viewabilityConfigCallbackPairs={[]}
>
  <View>
    <View
      onFocusCapture={[Function]}
      onLayout={[Function]}
      style={
        [
          {
            "flexDirection": "row",
          },
          null,
        ]
      }
    >
      <View
        style={
          [
            {
              "backgroundColor": "#f7f7f7",
              "borderRadius": 3,
              "elevation": 3,
              "marginBottom": 10,
              "marginLeft": 10,
              "marginRight": 10,
              "marginTop": 10,
              "paddingBottom": 5,
              "paddingLeft": 5,
              "paddingRight": 5,
              "paddingTop": 5,
              "shadowColor": "#000",
              "shadowOffset": {
                "height": 1,
                "width": 0,
              },
              "shadowOpacity": 0.7,
              "shadowRadius": 1,
              "width": 150,
            },
          ]
        }
      >
        <Image
          resizeMode="contain"
          source={
            {
              "uri": "https://www.pngitem.com/pimgs/m/297-2979894_ant-nest-clipart-black-ant-clipart-hd-png.png",
            }
          }
          style={
            [
              {
                "alignSelf": "center",
                "height": 50,
                "width": 100,
              },
              {},
            ]
          }
          testID="image-ant"
        />
        <View
          style={
            [
              {
                "flexDirection": "column",
                "marginLeft": 10,
                "marginTop": 5,
              },
            ]
          }
        >
          <Text
            style={
              [
                {
                  "fontSize": 14,
                  "fontWeight": "bold",
                  "marginBottom": 10,
                },
              ]
            }
          >
            Marie Ant oinette
          </Text>
          <Text
            style={
              [
                {
                  "color": "#000000",
                  "fontFamily": "System",
                  "fontSize": 14,
                },
              ]
            }
          >
            Weight 
            2
             g
          </Text>
          <Text
            style={
              [
                {
                  "color": "#000000",
                  "fontFamily": "System",
                  "fontSize": 14,
                },
              ]
            }
          >
            Length 
            12
             mm
          </Text>
          <View
            style={
              [
                {
                  "alignItems": "center",
                  "flexDirection": "row",
                },
              ]
            }
          >
            <Text
              style={
                [
                  {
                    "color": "#000000",
                    "fontFamily": "System",
                    "fontSize": 14,
                  },
                ]
              }
            >
              Color
            </Text>
            <View
              color="black"
              style={
                [
                  {
                    "backgroundColor": "black",
                    "height": 10,
                    "marginLeft": 5,
                    "marginTop": 3,
                    "width": 10,
                  },
                ]
              }
              testID="color-ant"
            />
          </View>
          <Text
            style={
              [
                {
                  "color": "#000000",
                  "fontFamily": "System",
                  "fontSize": 14,
                },
              ]
            }
          >
            Ant Likelihood 
            0.000
          </Text>
          <Text
            style={
              [
                {
                  "color": "#000000",
                  "fontFamily": "System",
                  "fontSize": 14,
                  "marginTop": 10,
                },
              ]
            }
          >
            Ant State 
          </Text>
        </View>
      </View>
    </View>
    <View
      onFocusCapture={[Function]}
      onLayout={[Function]}
      style={
        [
          {
            "flexDirection": "row",
          },
          null,
        ]
      }
    >
      <View
        style={
          [
            {
              "backgroundColor": "#f7f7f7",
              "borderRadius": 3,
              "elevation": 3,
              "marginBottom": 10,
              "marginLeft": 10,
              "marginRight": 10,
              "marginTop": 10,
              "paddingBottom": 5,
              "paddingLeft": 5,
              "paddingRight": 5,
              "paddingTop": 5,
              "shadowColor": "#000",
              "shadowOffset": {
                "height": 1,
                "width": 0,
              },
              "shadowOpacity": 0.7,
              "shadowRadius": 1,
              "width": 150,
            },
          ]
        }
      >
        <Image
          resizeMode="contain"
          source={
            {
              "uri": "https://www.pngitem.com/pimgs/m/297-2979894_ant-nest-clipart-black-ant-clipart-hd-png.png",
            }
          }
          style={
            [
              {
                "alignSelf": "center",
                "height": 50,
                "width": 100,
              },
              {},
            ]
          }
          testID="image-ant"
        />
        <View
          style={
            [
              {
                "flexDirection": "column",
                "marginLeft": 10,
                "marginTop": 5,
              },
            ]
          }
        >
          <Text
            style={
              [
                {
                  "fontSize": 14,
                  "fontWeight": "bold",
                  "marginBottom": 10,
                },
              ]
            }
          >
            Flamin Pincers
          </Text>
          <Text
            style={
              [
                {
                  "color": "#000000",
                  "fontFamily": "System",
                  "fontSize": 14,
                },
              ]
            }
          >
            Weight 
            2
             g
          </Text>
          <Text
            style={
              [
                {
                  "color": "#000000",
                  "fontFamily": "System",
                  "fontSize": 14,
                },
              ]
            }
          >
            Length 
            11
             mm
          </Text>
          <View
            style={
              [
                {
                  "alignItems": "center",
                  "flexDirection": "row",
                },
              ]
            }
          >
            <Text
              style={
                [
                  {
                    "color": "#000000",
                    "fontFamily": "System",
                    "fontSize": 14,
                  },
                ]
              }
            >
              Color
            </Text>
            <View
              color="red"
              style={
                [
                  {
                    "backgroundColor": "red",
                    "height": 10,
                    "marginLeft": 5,
                    "marginTop": 3,
                    "width": 10,
                  },
                ]
              }
              testID="color-ant"
            />
          </View>
          <Text
            style={
              [
                {
                  "color": "#000000",
                  "fontFamily": "System",
                  "fontSize": 14,
                },
              ]
            }
          >
            Ant Likelihood 
            0.000
          </Text>
          <Text
            style={
              [
                {
                  "color": "#000000",
                  "fontFamily": "System",
                  "fontSize": 14,
                  "marginTop": 10,
                },
              ]
            }
          >
            Ant State 
          </Text>
        </View>
      </View>
    </View>
    <View
      onFocusCapture={[Function]}
      onLayout={[Function]}
      style={
        [
          {
            "flexDirection": "row",
          },
          null,
        ]
      }
    >
      <View
        style={
          [
            {
              "backgroundColor": "#f7f7f7",
              "borderRadius": 3,
              "elevation": 3,
              "marginBottom": 10,
              "marginLeft": 10,
              "marginRight": 10,
              "marginTop": 10,
              "paddingBottom": 5,
              "paddingLeft": 5,
              "paddingRight": 5,
              "paddingTop": 5,
              "shadowColor": "#000",
              "shadowOffset": {
                "height": 1,
                "width": 0,
              },
              "shadowOpacity": 0.7,
              "shadowRadius": 1,
              "width": 150,
            },
          ]
        }
      >
        <Image
          resizeMode="contain"
          source={
            {
              "uri": "https://www.pngitem.com/pimgs/m/297-2979894_ant-nest-clipart-black-ant-clipart-hd-png.png",
            }
          }
          style={
            [
              {
                "alignSelf": "center",
                "height": 50,
                "width": 100,
              },
              {},
            ]
          }
          testID="image-ant"
        />
        <View
          style={
            [
              {
                "flexDirection": "column",
                "marginLeft": 10,
                "marginTop": 5,
              },
            ]
          }
        >
          <Text
            style={
              [
                {
                  "fontSize": 14,
                  "fontWeight": "bold",
                  "marginBottom": 10,
                },
              ]
            }
          >
            Big Susan
          </Text>
          <Text
            style={
              [
                {
                  "color": "#000000",
                  "fontFamily": "System",
                  "fontSize": 14,
                },
              ]
            }
          >
            Weight 
            5
             g
          </Text>
          <Text
            style={
              [
                {
                  "color": "#000000",
                  "fontFamily": "System",
                  "fontSize": 14,
                },
              ]
            }
          >
            Length 
            20
             mm
          </Text>
          <View
            style={
              [
                {
                  "alignItems": "center",
                  "flexDirection": "row",
                },
              ]
            }
          >
            <Text
              style={
                [
                  {
                    "color": "#000000",
                    "fontFamily": "System",
                    "fontSize": 14,
                  },
                ]
              }
            >
              Color
            </Text>
            <View
              color="black"
              style={
                [
                  {
                    "backgroundColor": "black",
                    "height": 10,
                    "marginLeft": 5,
                    "marginTop": 3,
                    "width": 10,
                  },
                ]
              }
              testID="color-ant"
            />
          </View>
          <Text
            style={
              [
                {
                  "color": "#000000",
                  "fontFamily": "System",
                  "fontSize": 14,
                },
              ]
            }
          >
            Ant Likelihood 
            0.000
          </Text>
          <Text
            style={
              [
                {
                  "color": "#000000",
                  "fontFamily": "System",
                  "fontSize": 14,
                  "marginTop": 10,
                },
              ]
            }
          >
            Ant State 
          </Text>
        </View>
      </View>
    </View>
    <View
      onFocusCapture={[Function]}
      onLayout={[Function]}
      style={
        [
          {
            "flexDirection": "row",
          },
          null,
        ]
      }
    >
      <View
        style={
          [
            {
              "backgroundColor": "#f7f7f7",
              "borderRadius": 3,
              "elevation": 3,
              "marginBottom": 10,
              "marginLeft": 10,
              "marginRight": 10,
              "marginTop": 10,
              "paddingBottom": 5,
              "paddingLeft": 5,
              "paddingRight": 5,
              "paddingTop": 5,
              "shadowColor": "#000",
              "shadowOffset": {
                "height": 1,
                "width": 0,
              },
              "shadowOpacity": 0.7,
              "shadowRadius": 1,
              "width": 150,
            },
          ]
        }
      >
        <Image
          resizeMode="contain"
          source={
            {
              "uri": "https://www.pngitem.com/pimgs/m/297-2979894_ant-nest-clipart-black-ant-clipart-hd-png.png",
            }
          }
          style={
            [
              {
                "alignSelf": "center",
                "height": 50,
                "width": 100,
              },
              {},
            ]
          }
          testID="image-ant"
        />
        <View
          style={
            [
              {
                "flexDirection": "column",
                "marginLeft": 10,
                "marginTop": 5,
              },
            ]
          }
        >
          <Text
            style={
              [
                {
                  "fontSize": 14,
                  "fontWeight": "bold",
                  "marginBottom": 10,
                },
              ]
            }
          >
            The Unbeareable Lightness of Being
          </Text>
          <Text
            style={
              [
                {
                  "color": "#000000",
                  "fontFamily": "System",
                  "fontSize": 14,
                },
              ]
            }
          >
            Weight 
            1
             g
          </Text>
          <Text
            style={
              [
                {
                  "color": "#000000",
                  "fontFamily": "System",
                  "fontSize": 14,
                },
              ]
            }
          >
            Length 
            5
             mm
          </Text>
          <View
            style={
              [
                {
                  "alignItems": "center",
                  "flexDirection": "row",
                },
              ]
            }
          >
            <Text
              style={
                [
                  {
                    "color": "#000000",
                    "fontFamily": "System",
                    "fontSize": 14,
                  },
                ]
              }
            >
              Color
            </Text>
            <View
              color="silver"
              style={
                [
                  {
                    "backgroundColor": "silver",
                    "height": 10,
                    "marginLeft": 5,
                    "marginTop": 3,
                    "width": 10,
                  },
                ]
              }
              testID="color-ant"
            />
          </View>
          <Text
            style={
              [
                {
                  "color": "#000000",
                  "fontFamily": "System",
                  "fontSize": 14,
                },
              ]
            }
          >
            Ant Likelihood 
            0.000
          </Text>
          <Text
            style={
              [
                {
                  "color": "#000000",
                  "fontFamily": "System",
                  "fontSize": 14,
                  "marginTop": 10,
                },
              ]
            }
          >
            Ant State 
          </Text>
        </View>
      </View>
    </View>
    <View
      onFocusCapture={[Function]}
      onLayout={[Function]}
      style={
        [
          {
            "flexDirection": "row",
          },
          null,
        ]
      }
    >
      <View
        style={
          [
            {
              "backgroundColor": "#f7f7f7",
              "borderRadius": 3,
              "elevation": 3,
              "marginBottom": 10,
              "marginLeft": 10,
              "marginRight": 10,
              "marginTop": 10,
              "paddingBottom": 5,
              "paddingLeft": 5,
              "paddingRight": 5,
              "paddingTop": 5,
              "shadowColor": "#000",
              "shadowOffset": {
                "height": 1,
                "width": 0,
              },
              "shadowOpacity": 0.7,
              "shadowRadius": 1,
              "width": 150,
            },
          ]
        }
      >
        <Image
          resizeMode="contain"
          source={
            {
              "uri": "https://www.pngitem.com/pimgs/m/297-2979894_ant-nest-clipart-black-ant-clipart-hd-png.png",
            }
          }
          style={
            [
              {
                "alignSelf": "center",
                "height": 50,
                "width": 100,
              },
              {},
            ]
          }
          testID="image-ant"
        />
        <View
          style={
            [
              {
                "flexDirection": "column",
                "marginLeft": 10,
                "marginTop": 5,
              },
            ]
          }
        >
          <Text
            style={
              [
                {
                  "fontSize": 14,
                  "fontWeight": "bold",
                  "marginBottom": 10,
                },
              ]
            }
          >
            The Duke
          </Text>
          <Text
            style={
              [
                {
                  "color": "#000000",
                  "fontFamily": "System",
                  "fontSize": 14,
                },
              ]
            }
          >
            Weight 
            3
             g
          </Text>
          <Text
            style={
              [
                {
                  "color": "#000000",
                  "fontFamily": "System",
                  "fontSize": 14,
                },
              ]
            }
          >
            Length 
            17
             mm
          </Text>
          <View
            style={
              [
                {
                  "alignItems": "center",
                  "flexDirection": "row",
                },
              ]
            }
          >
            <Text
              style={
                [
                  {
                    "color": "#000000",
                    "fontFamily": "System",
                    "fontSize": 14,
                  },
                ]
              }
            >
              Color
            </Text>
            <View
              color="red"
              style={
                [
                  {
                    "backgroundColor": "red",
                    "height": 10,
                    "marginLeft": 5,
                    "marginTop": 3,
                    "width": 10,
                  },
                ]
              }
              testID="color-ant"
            />
          </View>
          <Text
            style={
              [
                {
                  "color": "#000000",
                  "fontFamily": "System",
                  "fontSize": 14,
                },
              ]
            }
          >
            Ant Likelihood 
            0.000
          </Text>
          <Text
            style={
              [
                {
                  "color": "#000000",
                  "fontFamily": "System",
                  "fontSize": 14,
                  "marginTop": 10,
                },
              ]
            }
          >
            Ant State 
          </Text>
        </View>
      </View>
    </View>
  </View>
</RCTScrollView>
`;
